<?xml version="1.0" encoding="UTF-8"?>
<svg width="149px" height="149px" viewBox="0 0 149 149" version="1.1" xmlns="http://www.w3.org/2000/svg" xmlns:xlink="http://www.w3.org/1999/xlink">
    <!-- Generator: sketchtool 51.2 (57519) - http://www.bohemiancoding.com/sketch -->
    <title>E391742E-1EE2-4260-9109-8F4504D06A6D</title>
    <desc>Created with sketchtool.</desc>
    <defs></defs>
    <g id="Page-1" stroke="none" stroke-width="1" fill="none" fill-rule="evenodd">
        <g id="MOBILE-BLUCOIN-04" transform="translate(-86.000000, -252.000000)">
            <g id="BOTAO-QR-CODE" transform="translate(75.000000, 241.000000)">
                <path d="M112.625,66.5 C114.750011,66.5 116.343745,67.296867 117.40625,68.890625 C118.468755,70.484383 119,71.8124947 119,72.875 L119,106.941406 C119,108.623706 118.302741,110.095697 116.908203,111.357422 C115.513665,112.619147 114.130215,113.25 112.757812,113.25 L56.9101562,113.25 C55.5377536,113.25 54.2096418,112.630215 52.9257812,111.390625 C51.6419207,110.151035 51,108.645842 51,106.875 L51,72.8085938 C51,70.7278542 51.796867,69.1562553 53.390625,68.09375 C54.984383,67.0312447 56.3124947,66.5 57.375,66.5 L67.1367188,66.5 L72.25,58 L97.75,58 L102.863281,66.5 L112.625,66.5 Z M114.75,106.941406 L114.75,72.875 C114.75,72.7864579 114.583986,72.4101596 114.251953,71.7460937 C113.91992,71.0820279 113.377608,70.75 112.625,70.75 L100.472656,70.75 L99.2773438,68.6914062 L95.4921875,62.25 L74.640625,62.25 L69.5273438,70.75 L57.375,70.75 C57.1979158,70.75 56.7994823,70.9270816 56.1796875,71.28125 C55.5598927,71.6354184 55.25,72.1445279 55.25,72.8085937 L55.25,106.875 C55.25,107.450524 55.471352,107.948566 55.9140625,108.369141 C56.356773,108.789716 56.7109362,109 56.9765625,109 L112.757812,109 C113.06771,108.955729 113.477211,108.701174 113.986328,108.236328 C114.495445,107.771482 114.75,107.339846 114.75,106.941406 Z M85,72.875 C87.0364685,72.875 88.9622305,73.2623659 90.7773437,74.0371094 C92.592457,74.8118528 94.1751235,75.8743422 95.5253906,77.2246094 C96.8756578,78.5748765 97.9381472,80.157543 98.7128906,81.9726562 C99.4876341,83.7877695 99.875,85.7135315 99.875,87.75 C99.875,89.7864685 99.4876341,91.7122305 98.7128906,93.5273437 C97.9381472,95.342457 96.8756578,96.9251235 95.5253906,98.2753906 C94.1751235,99.6256578 92.592457,100.688147 90.7773437,101.462891 C88.9622305,102.237634 87.0364685,102.625 85,102.625 C82.9635315,102.625 81.0377695,102.237634 79.2226562,101.462891 C77.407543,100.688147 75.8248765,99.6256578 74.4746094,98.2753906 C73.1243422,96.9251235 72.0618528,95.342457 71.2871094,93.5273437 C70.5123659,91.7122305 70.125,89.7864685 70.125,87.75 C70.125,85.7135315 70.5123659,83.7877695 71.2871094,81.9726562 C72.0618528,80.157543 73.1243422,78.5748765 74.4746094,77.2246094 C75.8248765,75.8743422 77.407543,74.8118528 79.2226562,74.0371094 C81.0377695,73.2623659 82.9635315,72.875 85,72.875 Z M87.4563195,91.6882382 C87.4563195,91.0965749 87.2631617,90.6058496 86.8768403,90.2160479 C86.4905189,89.8262461 85.8449194,89.4712534 84.9400225,89.1510591 C83.4713051,88.6498854 82.3697836,88.0460497 81.6354249,87.339534 C80.9010662,86.6330183 80.5338924,85.6707096 80.5338924,84.4525791 C80.5338924,83.2970953 80.8854048,82.3469678 81.5884401,81.602168 C82.2914754,80.8573682 83.2450833,80.4153674 84.4492923,80.2761525 L84.4492923,78 L86.119863,78 L86.119863,80.2970346 C87.3101505,80.478014 88.2411363,80.987881 88.9128483,81.8266509 C89.5845603,82.6654208 89.9204112,83.7773832 89.9204112,85.1625717 L87.3936731,85.1625717 C87.3936731,84.2924784 87.1987752,83.6033749 86.8089734,83.0952405 C86.4191716,82.587106 85.8832022,82.3330426 85.2010491,82.3330426 C84.4910531,82.3330426 83.958564,82.5227201 83.603566,82.9020807 C83.2485679,83.2814414 83.0710716,83.7913084 83.0710716,84.431697 C83.0710716,85.0303211 83.2572687,85.517566 83.6296686,85.8934463 C84.0020685,86.2693266 84.6720303,86.6277996 85.6395739,86.9688762 C87.1082913,87.4978929 88.201112,88.1104293 88.9180688,88.8065039 C89.6350256,89.5025785 89.9934987,90.4561863 89.9934987,91.6673561 C89.9934987,92.8715651 89.628065,93.8321337 88.8971867,94.5490905 C88.1663084,95.2660473 87.1674563,95.6906464 85.9006006,95.8229006 L85.9006006,97.8589086 L84.240471,97.8589086 L84.240471,95.8333417 C82.9944975,95.7010875 81.9695431,95.250386 81.1655769,94.4812235 C80.3616108,93.7120611 79.973555,92.5792167 80.001398,91.0826564 L80.0222801,91.0304511 L82.4863718,91.0304511 C82.4863718,92.018877 82.7282541,92.7253821 83.212026,93.1499876 C83.6957978,93.5745931 84.2996334,93.7868926 85.023551,93.7868926 C85.7961938,93.7868926 86.394809,93.5989553 86.8194145,93.223075 C87.2440199,92.8471948 87.4563195,92.3355876 87.4563195,91.6882382 Z" id="camera---simple-line-icons" fill="#979797"></path>
                <circle id="Oval" stroke="#979797" stroke-width="3" fill-rule="nonzero" cx="85.5" cy="85.5" r="72.5"></circle>
            </g>
        </g>
    </g>
</svg>