[
  {
    "name": "CEDWARD",
    "org": "O=OrgA, L=São Paulo, C=BR",
    "port": 10010
  },
  {
    "name": "ZIDANT",
    "org": "O=OrgB, L=São Paulo, C=BR",
    "port": 10011
  },
  {
    "name": "ANIXANG",
    "org": "O=OrgC, L=São Paulo, C=BR",
    "port": 10012
  },
  {
    "name": "ECOLIGHT",
    "org": "O=OrgD, L=São Paulo, C=BR",
    "port": 10013
  },
  {
    "name": "ORONOKO",
    "org": "O=OrgE, L=São Paulo, C=BR",
    "port": 10014
  }
]